Chapter 7 Is the GM of cold- vs warm-adapted populations similar in the wild? | AlberdiLab | Martin-Bideguren et al. 2025
…
7.5 Differential abundance

7.5.1 Structural zeros

# A tibble: 198 × 14
# Rowwise: 
   genome                present average domain      phylum             class               order                  family                  genus          species                     completeness contamination  length    gc
   <chr>                 <chr>     <dbl> <chr>       <chr>              <chr>               <chr>                  <chr>                   <chr>          <chr>                              <dbl>         <dbl>   <dbl> <dbl>
 1 AH1_2nd_10:bin_000001 cold          0 d__Bacteria p__Cyanobacteriota c__Vampirovibrionia o__Gastranaerophilales f__Gastranaerophilaceae g__Limenecus   s__                                 99.8          1.69 2086798  0.37
 2 AH1_2nd_10:bin_000042 cold          0 d__Bacteria p__Bacteroidota    c__Bacteroidia      o__Bacteroidales       f__Rikenellaceae        g__Alistipes   s__                                 87.8          1.27 2032758  0.55
 3 AH1_2nd_10:bin_000050 cold          0 d__Bacteria p__Bacteroidota    c__Bacteroidia      o__Bacteroidales       f__Bacteroidaceae       g__Bacteroides s__Bacteroides intestinalis         95.4          3.69 5538675  0.43
 4 AH1_2nd_10:bin_000051 cold          0 d__Bacteria p__Bacteroidota    c__Bacteroidia      o__Bacteroidales       f__Bacteroidaceae       g__Bacteroides s__                                 89.6          5.99 4681892  0.48
 5 AH1_2nd_10:bin_000084 cold          0 d__Bacteria p__Bacteroidota    c__Bacteroidia      o__Bacteroidales       f__Rikenellaceae        g__Alistipes   s__                                 77.8          0.82 2335170  0.6 
 6 AH1_2nd_13:bin_000025 cold          0 d__Bacteria p__Bacillota_A     c__Clostridia       o__Christensenellales  f__UBA3700              g__            s__                                 96.8          0    2030500  0.41
 7 AH1_2nd_13:bin_000037 cold          0 d__Bacteria p__Bacteroidota    c__Bacteroidia      o__Bacteroidales       f__Marinifilaceae       g__Odoribacter s__                                 95.9          1.8  4234862  0.44
 8 AH1_2nd_13:bin_000055 cold          0 d__Bacteria p__Bacteroidota    c__Bacteroidia      o__Bacteroidales       f__Bacteroidaceae       g__Bacteroides s__Bacteroides fragilis_B           96.8          1.55 4657420  0.43
 9 AH1_2nd_16:bin_000018 cold          0 d__Bacteria p__Bacillota_A     c__Clostridia       o__Christensenellales  f__UBA3700              g__            s__                                 96.0          0.3  1909748  0.37
10 AH1_2nd_16:bin_000019 cold          0 d__Bacteria p__Bacteroidota    c__Bacteroidia      o__Bacteroidales       f__Rikenellaceae        g__Alistipes   s__                                 99.6          1.75 2795262  0.6 
# ℹ 188 more rows
…
